…
setwd(here::here())
```

Examining the distribution of episodes by director

``` r
writers %>% count(writer, sort = TRUE)
```

    ## # A tibble: 36 x 2
    ##    writer               n
    ##    <chr>            <int>
    ##  1 Steven Moffat       48
    ##  2 Russell T Davies    31
    ##  3 Chris Chibnall      26
    ##  4 Mark Gatiss          9
    ##  5 Toby Whithouse       7
    ##  6 Gareth Roberts       6
    ##  7 Helen Raynor         4
    ##  8 Jamie Mathieson      4
    ##  9 Peter Harness        4
    ## 10 Matthew Graham       3
    ## # ... with 26 more rows
…
